src/build/mul_booth.vcd
$date
	Fri Nov 01 00:48:38 2024
$end
$version
	Icarus Verilog
$end
$timescale
	1ps
$end
$scope module tb_mult_with_no_fsm $end
$var wire 16 ! Y [15:0] $end
$var wire 2 " Q_LSB [1:0] $end
$var parameter 32 # N $end
$var reg 8 $ A [7:0] $end
$var reg 8 % B [7:0] $end
$var reg 1 & add_sub $end
$var reg 1 ' clk $end
$var reg 1 ( load_A $end
$var reg 1 ) load_B $end
$var reg 1 * load_add $end
$var reg 1 + rst $end
$var reg 1 , shift_HQ_LQ_Q_1 $end
$scope module uut $end
$var wire 8 - A [7:0] $end
$var wire 8 . B [7:0] $end
$var wire 1 & add_sub $end
$var wire 1 ' clk $end
$var wire 1 ( load_A $end
$var wire 1 ) load_B $end
$var wire 1 * load_add $end
$var wire 1 + rst $end
$var wire 1 , shift_HQ_LQ_Q_1 $end
$var parameter 32 / N $end
$var reg 8 0 HQ [7:0] $end
$var reg 8 1 LQ [7:0] $end
$var reg 8 2 M [7:0] $end
$var reg 1 3 Q_1 $end
$var reg 2 4 Q_LSB [1:0] $end
$var reg 16 5 Y [15:0] $end
$var reg 8 6 adder_sub_out [7:0] $end
$var reg 17 7 shift [16:0] $end
$upscope $end
$upscope $end
$enddefinitions $end
$comment Show the parameter values. $end
$dumpall
b1000 /
b1000 #
$end
#0
$dumpvars
bx 7
bx 6
bx 5
bx 4
x3
bx 2
bx 1
bx 0
b0 .
b0 -
0,
1+
0*
0)
0(
0'
0&
b0 %
b0 $
bx "
bx !
$end
#5000
1'
#10000
b0 6
b0 "
b0 4
03
b0 1
b0 0
b0 2
b0 7
0'
0+
#15000
1'
#20000
0'
1(
b11 %
b11 .
b1111 $
b1111 -
1+
#25000
b1111 6
b1111 2
1'
#30000
0'
1)
0(
#35000
b10 "
b10 4
b11 1
b0 !
b0 5
b110 7
1'
#40000
0'
1*
0)
#45000
b0 6
b1111 0
b11 !
b11 5
b1111000000110 7
1'
#50000
0'
1,
0*
#55000
b1000 6
b11 "
b11 4
13
b10000001 1
b111 0
b111100000011 !
b111100000011 5
b111100000011 7
1'
#60000
0'
0,
#65000
1'
#70000
0'
1,
#75000
b1100 6
b1 "
b1 4
b11000000 1
b11 0
b11110000001 !
b11110000001 5
b11110000001 7
1'
#80000
0'
0,
#85000
1'
#90000
b10010 6
0'
1*
1&
#95000
b100001 6
b10010 0
b1111000000 !
b1111000000 5
b10010110000001 7
1'
#100000
0'
1,
0*
#105000
b11000 6
b0 "
b0 4
03
b1100000 1
b1001 0
b1001011000000 !
b1001011000000 5
b1001011000000 7
1'
#110000
0'
0,
#115000
1'
#120000
0'
1,
#125000
b10011 6
b10110000 1
b100 0
b100101100000 !
b100101100000 5
b100101100000 7
1'
#130000
0'
0,
#135000
1'
#140000
0'
1,
#145000
b10001 6
b1011000 1
b10 0
b10010110000 !
b10010110000 5
b10010110000 7
1'
#150000
0'
0,
#155000
1'
#160000
0'
1,
#165000
b10000 6
b101100 1
b1 0
b1001011000 !
b1001011000 5
b1001011000 7
1'
#170000
0'
0,
#175000
1'
#180000
0'
1,
#185000
b1111 6
b10010110 1
b0 0
b100101100 !
b100101100 5
b100101100 7
1'
#190000
0'
0,
#195000
1'
#200000
0'
1,
#205000
b10 "
b10 4
b1001011 1
b10010110 !
b10010110 5
b10010110 7
1'
#210000
0'
0,
